07:10:05.569099  [ERROR   ][login_timeout]req=suid=undefined&timestamp=undefined&plataccount=undefined&sign=undefined&tocken=1&port=8001
07:11:02.175685  [ERROR   ][login_timeout]req=suid=undefined&timestamp=undefined&plataccount=undefined&sign=undefined&tocken=1&port=8001
07:11:19.753049  [ERROR   ][login_timeout]req=suid=undefined&timestamp=undefined&plataccount=undefined&sign=undefined&tocken=1&port=8001
07:12:52.911874  [WARNING ][codejson]resp=http://127.0.0.1/plat/verify.php?verifyToken=1
07:12:52.911999  [INFO    ][login_req]suid=33&timestamp=1432537962&plataccount=billy&sign=e5d27afd67ad883f9692ac649bb33c8e&tocken=1&port=8001
07:12:52.912128  [ERROR   ][login] connect to[127.0.0.1:8001]  ok!
07:13:16.349792  [WARNING ][codejson]resp=http://127.0.0.1/plat/verify.php?verifyToken=1
07:13:16.349864  [INFO    ][login_req]suid=33&timestamp=1432537962&plataccount=billy&sign=e5d27afd67ad883f9692ac649bb33c8e&tocken=1&port=8001
07:13:16.350062  [ERROR   ][login] connect to[127.0.0.1:8001]  ok!
07:13:16.350354  [ERROR   ][loginapp_recv_err1]
07:13:16.350391  [ERROR   ][loginapp_req]send data to[127.0.0.1:8001] failed
07:13:25.558531  [WARNING ][codejson]resp=http://127.0.0.1/plat/verify.php?verifyToken=1
07:13:25.558580  [INFO    ][login_req]suid=33&timestamp=1432537962&plataccount=billy&sign=e5d27afd67ad883f9692ac649bb33c8e&tocken=1&port=8001
07:13:25.558743  [ERROR   ][login] connect to[127.0.0.1:8001]  ok!
07:13:25.559018  [ERROR   ][loginapp_recv_err1]
07:13:25.559053  [ERROR   ][loginapp_req]send data to[127.0.0.1:8001] failed
07:13:38.926468  [WARNING ][codejson]resp=http://127.0.0.1/plat/verify.php?verifyToken=1
07:13:38.926530  [INFO    ][login_req]suid=33&timestamp=1432537962&plataccount=billy&sign=e5d27afd67ad883f9692ac649bb33c8e&tocken=1&port=8001
07:13:38.926725  [ERROR   ][login] connect to[127.0.0.1:8001]  ok!
07:13:38.926977  [ERROR   ][loginapp_recv_err1]
07:13:38.927007  [ERROR   ][loginapp_req]send data to[127.0.0.1:8001] failed
07:14:06.801385  [WARNING ][codejson]resp=http://127.0.0.1/plat/verify.php?verifyToken=1
07:14:06.801446  [INFO    ][login_req]suid=33&timestamp=1432537962&plataccount=billy&sign=e5d27afd67ad883f9692ac649bb33c8e&tocken=1&port=8001
07:14:06.801618  [ERROR   ][login] connect to[127.0.0.1:8001]  ok!
07:14:06.801917  [ERROR   ][loginapp_recv_err1]
07:14:06.801955  [ERROR   ][loginapp_req]send data to[127.0.0.1:8001] failed
07:14:15.755411  [WARNING ][codejson]resp=http://127.0.0.1/plat/verify.php?verifyToken=1
07:14:15.755490  [INFO    ][login_req]suid=33&timestamp=1432537962&plataccount=billy&sign=e5d27afd67ad883f9692ac649bb33c8e&tocken=1&port=8001
07:14:15.755719  [ERROR   ][login] connect to[127.0.0.1:8001]  ok!
07:14:15.756106  [ERROR   ][loginapp_recv_err1]
07:14:15.756135  [ERROR   ][loginapp_req]send data to[127.0.0.1:8001] failed
07:24:29.464746  [WARNING ][codejson]resp=http://127.0.0.1/plat/verify.php?verifyToken=1
07:24:29.464801  [INFO    ][login_req]suid=33&timestamp=1432537962&plataccount=billy&sign=e5d27afd67ad883f9692ac649bb33c8e&tocken=1&port=8001
07:24:29.464996  [ERROR   ][login] connect to[127.0.0.1:8001]  ok!
07:24:29.465247  [ERROR   ][loginapp_recv_err1]
07:24:29.465289  [ERROR   ][loginapp_req]send data to[127.0.0.1:8001] failed
07:25:18.281074  [WARNING ][codejson]resp=http://127.0.0.1/plat/verify.php?verifyToken=1
07:25:18.281132  [INFO    ][login_req]suid=33&timestamp=1432537962&plataccount=billy&sign=e5d27afd67ad883f9692ac649bb33c8e&tocken=1&port=8001
07:25:18.281383  [ERROR   ][login] connect to[127.0.0.1:8001]  ok!
07:25:18.281669  [ERROR   ][loginapp_recv_err1]
07:25:18.281693  [ERROR   ][loginapp_req]send data to[127.0.0.1:8001] failed
08:14:20.325598  [WARNING ][codejson]resp=http://127.0.0.1/plat/verify.php?verifyToken=1
08:14:20.325658  [INFO    ][login_req]suid=39&timestamp=1432541653&plataccount=s990415&sign=4eef5eb9bb058a939ccab60940ca82e9&tocken=1&port=8001
08:14:20.325864  [ERROR   ][login] connect to[127.0.0.1:8001]  ok!
08:14:52.712507  [WARNING ][codejson]resp=http://127.0.0.1/plat/verify.php?verifyToken=1
08:14:52.712569  [INFO    ][login_req]suid=39&timestamp=1432541653&plataccount=s990415&sign=4eef5eb9bb058a939ccab60940ca82e9&tocken=1&port=8001
08:14:52.712755  [ERROR   ][login] connect to[127.0.0.1:8001]  ok!
08:14:52.713108  [ERROR   ][loginapp_recv_err1]
08:14:52.713139  [ERROR   ][loginapp_req]send data to[127.0.0.1:8001] failed
22:03:05.028392  [WARNING ][codejson]resp=http://127.0.0.1/plat/verify.php?verifyToken=1
22:03:05.028448  [INFO    ][login_req]suid=33&timestamp=1432591377&plataccount=billy&sign=db1231684e9bc44f0346ad1c4c512510&tocken=1&port=8001
22:03:05.028619  [ERROR   ][login] connect to[127.0.0.1:8001]  ok!
22:03:05.029312  [ERROR   ][loginapp_recv_err1]
22:03:05.029347  [ERROR   ][loginapp_req]send data to[127.0.0.1:8001] failed
22:03:31.149048  [WARNING ][codejson]resp=http://127.0.0.1/plat/verify.php?verifyToken=1
22:03:31.149096  [INFO    ][login_req]suid=33&timestamp=1432591377&plataccount=billy&sign=db1231684e9bc44f0346ad1c4c512510&tocken=1&port=8001
22:03:31.149267  [ERROR   ][login] connect to[127.0.0.1:8001]  ok!
22:03:31.149579  [ERROR   ][loginapp_recv_err1]
22:03:31.149602  [ERROR   ][loginapp_req]send data to[127.0.0.1:8001] failed
22:03:46.417499  [WARNING ][codejson]resp=http://127.0.0.1/plat/verify.php?verifyToken=1
22:03:46.417560  [INFO    ][login_req]suid=33&timestamp=1432591377&plataccount=billy&sign=db1231684e9bc44f0346ad1c4c512510&tocken=1&port=8001
22:03:46.417697  [ERROR   ][login] connect to[127.0.0.1:8001]  ok!
22:03:46.418047  [ERROR   ][loginapp_recv_err1]
22:03:46.418088  [ERROR   ][loginapp_req]send data to[127.0.0.1:8001] failed
22:04:11.683333  [WARNING ][codejson]resp=http://127.0.0.1/plat/verify.php?verifyToken=1
22:04:11.683402  [INFO    ][login_req]suid=33&timestamp=1432591377&plataccount=billy&sign=db1231684e9bc44f0346ad1c4c512510&tocken=1&port=8001
22:04:11.683580  [ERROR   ][login] connect to[127.0.0.1:8001]  ok!
22:04:11.684025  [ERROR   ][loginapp_recv_err1]
22:04:11.684062  [ERROR   ][loginapp_req]send data to[127.0.0.1:8001] failed
22:06:10.220948  [ERROR   ][login_timeout]req=suid=undefined&timestamp=undefined&plataccount=undefined&sign=undefined&tocken=1&port=8001
22:06:18.599522  [ERROR   ][login_timeout]req=suid=undefined&timestamp=undefined&plataccount=undefined&sign=undefined&tocken=1&port=8001
